{
  "dependencies": [
    {
      "name": "@types/jest",
      "type": "build"
    },
    {
      "name": "@types/node",
      "version": "^12",
      "type": "build"
    },
    {
      "name": "@typescript-eslint/eslint-plugin",
      "version": "^5",
      "type": "build"
    },
    {
      "name": "@typescript-eslint/parser",
      "version": "^5",
      "type": "build"
    },
    {
      "name": "eslint-import-resolver-node",
      "type": "build"
    },
    {
      "name": "eslint-import-resolver-typescript",
      "type": "build"
    },
    {
      "name": "eslint-plugin-import",
      "type": "build"
    },
    {
      "name": "eslint",
      "version": "^8",
      "type": "build"
    },
    {
      "name": "jest",
      "type": "build"
    },
    {
      "name": "jest-junit",
      "version": "^13",
      "type": "build"
    },
    {
      "name": "json-schema",
      "type": "build"
    },
    {
      "name": "npm-check-updates",
      "version": "^12",
      "type": "build"
    },
    {
      "name": "projen",
      "version": "^0.45.4",
      "type": "build"
    },
    {
      "name": "standard-version",
      "version": "^9",
      "type": "build"
    },
    {
      "name": "ts-jest",
      "type": "build"
    },
    {
      "name": "ts-node",
      "type": "build"
    },
    {
      "name": "typedoc",
      "version": "^0.21.4",
      "type": "build"
    },
    {
      "name": "typescript",
      "type": "build"
    },
    {
      "name": "@types/yarnpkg__lockfile",
      "type": "runtime"
    },
    {
      "name": "@victorykit/unizip",
      "type": "runtime"
    },
    {
      "name": "@yarnpkg/lockfile",
      "type": "runtime"
    }
  ],
  "//": "~~ Generated by projen. To modify, edit .projenrc.js and run \"npx projen\"."
}
